"id","group_id","entry_by","category_name","category_title","category_code","category_price","category_thumb","category_desc","parent","category_order","cat_date","featured","active","meta_title","meta_keywords","meta_desc"
"16","4","1","Computer","Computer-19","CP0000","30000","Dell-LCD-Monitor.jpg","Brand Apple PC","0","1","2010-09-08 05:38:08","0","1","Brand Apple PC","Brand Apple PC","Brand Apple PC",,
"17","4","1","Flower","Flower","CP0001","2.7","Aparajita-3.jpg","Flower","0","2","2010-09-08 05:39:13","0","1","Flower","Flower","Flower",,
"18","4","1","Food","Food-18","CP0002","123","Chicken_Biryani_Yellow.jpg","Food Chart","0","3","2010-09-08 05:40:08","0","1","Food Chart","Food Chart","Food Chart",,
"20","1","1","Ancient","Ancient","","","Ancient_2.jpg","Ancient","0","1","2012-05-07 05:50:17","0","1","Ancient","Ancient","Ancient",,
"21","1","1","Architecture","Architecture","","","Hotel-Al-Burj.jpg","Architecture","30","1","2012-05-07 06:39:57","0","1","Architecture","Architecture","Architecture",,
"22","1","1","Building","Building","","","Building_5.jpg","Building","21","1","2012-05-07 06:42:19","0","1","Building","Building","Building",,
"23","1","1","Exterior","Exterior","","","Exterior_7.jpg","Exterior","21","2","2012-05-07 06:48:33","0","1","Exterior","Exterior","Exterior",,
"24","1","1","Interior","Interior","","","Room.jpg","Interior","21","3","2012-05-07 06:52:59","0","1","Interior","Interior","Interior",,
"25","1","1","Artistic","Artistic","","","Hand-Paint.jpg","Artistic","0","3","2012-05-07 06:57:23","0","1","Artistic","Artistic","Artistic",,
"26","1","1","Business","Business","","","Flowchart.jpg","Business","0","4","2012-05-07 07:00:22","1","1","Business","Business","Business",,
"27","1","1","Customer Support","Customer-Support","","","Customer-Support_7.jpg","Customer Support","26","1","2012-05-07 07:08:38","0","1","Customer Support","Customer Support","Customer Support",,
"28","1","1","Executive","Executive","","","Female-Executive_1.jpg","Executive","26","2","2012-05-07 07:13:10","0","1","Executive","Executive","Executive",,
"29","1","1","Female Executive","Female-Executive","","","Female-Executive_2.jpg","Female Executive","28","1","2012-05-07 07:15:56","0","1","Female Executive","Female Executive","Female Executive",,
"30","1","1","Male Executive","Male-Executive","","","Male-Executive_1.jpg","Male Executive","28","2","2012-05-07 07:18:59","0","0","Male Executive","Male Executive","Male Executive",,
"31","1","1","Office","Office","","","Working.jpg","Office","32","1","2012-05-07 07:23:00","0","1","Office","Office","Office",,
"32","1","1","Team","Team","","","Team_6.jpg","Team","26","4","2012-05-07 07:26:47","0","1","Team","","Team",,
"33","1","1","Charity","Charity","","","Charity_23.jpg","Charity","0","5","2012-05-07 07:33:03","0","1","Charity","Charity","Charity",,
"34","1","1","Flag","Flag","","","Bangladeshi-Flag.jpg","Flag","0","6","2012-05-07 07:37:11","0","1","Flag","","Flag",,
"35","1","1","Hosting Server","Hosting-Server","","","Hosting-Server_2.jpg","Hosting Server","0","7","2012-05-07 07:39:05","0","1","Hosting Server","Hosting Server","Hosting Server",,
"36","1","1","Nature","Nature","","","Nature_2.jpg","Nature","0","8","2012-05-07 07:45:01","0","1","Nature","Nature","Nature",,
"37","1","1","Others","Others","","","Marching.jpg","Others","0","9","2012-05-07 07:46:25","0","1","Others","Others","Others",,
"38","4","1","Garments","Garments","GM001","300","Stripe-Shirt.jpg","Cats Eye Shirt","0","4","2012-05-10 07:06:25","0","1","Garments","Garments","Garments",,
"39","4","1","Furniture","Furniture","FT005","4000","living-room-furniture.jpg","Otobi Furniture","0","5","2012-05-10 07:22:45","0","1","","","",,
"40","4","1","Men","Men","MN001","","Gent_Suit.jpg","Men","38","1","2012-05-10 08:52:08","0","1","Men","","Men",,
"41","4","1","Women","Women","WM002","","Jamdani_Saree.jpg","Women","38","4","2012-05-10 08:53:06","0","1","Women","","Women",,
"42","4","1","Children","Children","CD003","","Baby-Swanky-Dress.jpg","Children","38","2","2012-05-10 08:53:50","0","1","Children","Children","Children",,
"43","4","1","Old","Old","OD004","","Nighty-Dress.jpg","Old","38","3","2012-05-10 08:54:29","0","1","Old","","Old",,
"44","4","1","Rainy Season Flower","Rainy-Season-Flower","RF001","","Kadam-Ful.jpg","Rainy Season Flower","17","1","2012-05-10 08:59:54","0","1","Rainy Season Flower","Rainy Season Flower","Rainy Season Flower",,
"45","4","1","Summer Flower","Summer-Flower","SF002","100","Summer-Flower.jpg","Summer Flower","17","2","2012-05-10 09:01:32","0","1","Summer Flower","Summer Flower","Summer Flower",,
"46","4","1","Spring Flower","Spring-Flower","SF003","170","Spring-Flower.jpg","Spring Flower","17","3","2012-05-10 09:02:29","0","1","Spring Flower","Spring Flower","Spring Flower",,
"47","4","1","Autumn Flower","Autumn-Flower","AF004","200","Autumn-Flower.jpg","Autumn Flower","17","4","2012-05-10 09:03:43","0","1","Autumn Flower","Autumn Flower","Autumn Flower",,
"48","4","1","Winter Flower","Winter-Flower","WF005","250","Winter-Flower.jpg","Winter Flower","17","5","2012-05-10 09:38:00","0","1","Winter Flower","Winter Flower","Winter Flower",,
"49","4","1","HP Brand","HP-Brand","HP001","60000","Hp-Laptop.jpg","Liquid Crystal Display (LCD) Monitor","16","1","2012-05-10 09:42:21","0","1","Liquid Crystal Display (LCD) Monitor","Liquid Crystal Display (LCD) Monitor","Liquid Crystal Display (LCD) Monitor",,
"50","4","1","Asus Brand","Asus-Brand","AB001","30000","Asus-Laptop.jpg","Asus Brand","16","2","2012-05-10 10:06:16","0","1","CPU","","CPU",,
"51","4","1","Dell Brand","Dell-Brand","DB001","55000","Dell-Laptop.jpg","Dell Laptop","16","3","2012-05-10 10:07:32","0","1","Dell Laptop","Dell Laptop","Dell Laptop",,
"52","4","1","Apple Brand","Apple-Brand","AB001","65000","Apple-Laptop.png","Apple Laptop","16","4","2012-05-10 10:12:33","0","1","Apple Brand Laptop","Apple Brand Laptop","Apple Brand Laptop",,
"53","4","1","Acer Brand","Acer-Brand","AB004","45000","ACER-BRAND-LAPTOP.jpg","Acer Laptop,Notebook and Notepad.","16","5","2012-05-10 10:14:44","0","1","Acer Brand","Acer Brand","Acer Brand",,
"54","4","1","First Food","First-Food","FF001","240","Vegetable_Roll.jpg","First Food Beef Burger","18","1","2012-05-10 10:30:05","0","1","First Food","First Food","First Food",,
"55","4","1","Fruits","Fruits","FR002","350","apple-fruit.jpg","Green Apple ","18","2","2012-05-10 10:32:59","0","1","Fruits","Fruits","Fruits",,
"56","4","1","Drink and Juice","Drink-and-Juice","DJ003","120","Drinks.jpg","Sprite and Coca-Cola","18","3","2012-05-10 10:41:55","0","1","Sprite Snack and Drink","Sprite Snack and Drink","Sprite and Coca-Cola",,
"57","4","1","Rice","Rice","RC004","220","chicken-biryani_1.jpg","Beef Khichuri","18","4","2012-05-10 10:52:03","0","1","Beef Khichuri","Beef Khichuri","Beef Khichuri",,
"58","4","1","Cake","Cake","CK005","400","choc_rose_cake.jpg","Traditional Cake","18","5","2012-05-10 11:01:49","0","1","Traditional Sweets","Traditional Sweets","Traditional Sweets",,
"60","6","1","Apartment","Apartment","Apartment","1000","Apartment.jpg","Apartment","0","1","2012-05-16 10:43:02","0","1","Apartment","Apartment","Apartment",,
"61","6","1","Commercial","Commercial","CAp - 01","20000","Commercial.jpg","Commercial","0","2","2012-05-17 04:48:11","0","1","Commercial","Commercial","Commercial",,
"62","6","1","Flat","Flat","F_1","50000","Flat.jpg","Flat","0","3","2012-05-17 05:16:14","0","1","Flat","","Flat",,
"63","6","1","Bathroom","Bathroom","","","Bathroom.jpg","Bathroom","62","1","2012-05-17 05:17:38","0","1","Bathroom","Bathroom","Bathroom",,
"64","6","1","Bedroom","Bedroom","BR - 01","60000","Bebroom.jpg","Bedroom","62","2","2012-05-17 05:19:09","0","1","Bedroom","Bedroom","Bedroom",,
"65","6","1","Exterior","Exterior-65","E - 01","30000","Exterior.jpg","Exterior","62","3","2012-05-17 05:20:28","0","1","Exterior","Exterior","Exterior",,
"66","6","1","Interior","Interior-66","I - 01","50000","Interior.jpg","Interior","62","4","2012-05-17 05:21:48","0","1","Interior","","Interior",,
"67","6","1","Kitchen Room","Kitchen-Room","KR - 01","23000","Kitchen.jpg","Kitchen Room","62","5","2012-05-17 05:23:36","0","1","Kitchen Room","Kitchen Room`","Kitchen Room",,
"68","6","1","Seating Room","Seating-Room","ST - 01","22000","Seating-Room.jpg","Seating Room","62","6","2012-05-17 05:26:05","0","1","Seating Room","Seating Room","Seating Room",,
"69","6","1","Land","Land","L - 01","33000","Land.jpg","Land","0","4","2012-05-17 05:27:36","0","1","Land","","Land",,
"70","6","1","Rental","Rental","Rc - 01","55000","Rental.jpg","Rental","0","5","2012-05-17 05:29:18","0","1","Rental","","Rental",,
"71","4","1","Office Furniture","Office-Furniture","OF001","12000","Office-Furniture.jpg"," Otobi Office Furniture  ","39","1","2012-05-17 07:17:46","0","1","","","",,
"72","4","1","Home Furniture","Home-Furniture","HF002","30000","Bed-Room.jpg","Haril Home Furniture","39","2","2012-05-17 07:20:23","0","1","","","",,
"73","4","1","School Furniture","School-Furniture","SF003","5000","Desk.jpg","School Furniture","39","3","2012-05-19 08:42:59","0","1","School Furniture","School Furniture","School Furniture",,
"74","7","1","sdadasd","dsadsa","","","","dsadsad","0","1","2013-04-21 04:54:51","0","1","","","",,
"75","7","1","dsadasd","asda","","","","dsada","74","1","2013-04-21 04:55:04","0","1","","","",,
