"id","table_name","table_id","article_title","vote_value","ip","date"
"1","hotels_page","1","Oasis Beach Tower Apartments","1","127.0.0.1","2011-10-30 18:37:06",,
"2","hotels_page","2","Al Qasr Hotel, Madinat Jumeirah","-1","127.0.0.1","2011-10-30 18:37:14",,
"3","hotels_page","3","Hotel Splendide Royal - Small Luxury Hotels of World","1","127.0.0.1","2011-10-30 18:37:16",,
"4","hotels_page","4","Radisson Royal Hotel Dubai","-1","127.0.0.1","2011-10-30 18:37:19",,
"5","vacationrentals_page","3","Seascape - Nautilus 1","0","127.0.0.1","2011-10-30 18:38:13",,
"6","vacationrentals_page","1","Romantic Private Cottage in the Mountains","1","127.0.0.1","2011-10-30 18:38:15",,
"7","vacationrentals_page","2","South Kensington Chic Two Bedroom Apartment","1","127.0.0.1","2011-10-30 18:38:16",,
"8","vacationrentals_page","4","Nazrul test","-1","127.0.0.1","2011-10-30 18:38:18",,
"9","vacationrentals_page","5","Time-Out-Atlantic-Beach-Vacation-Home","1","127.0.0.1","2011-10-30 18:38:19",,
"10","vacationrentals_page","6","Forest Pines 1-11","1","127.0.0.1","2011-10-30 18:38:43",,
"11","vacationrentals_page","7","Seculded Quebec Territory for those that want a wilderness adventure and total privacy.","-1","127.0.0.1","2011-10-30 18:38:45",,
"12","vacationrentals_page","8","Lotus Beach Villa","1","127.0.0.1","2011-10-30 18:38:46",,
"13","vacationrentals_page","9","Luxury Austrian Vacation Home - World Class Skiing","-1","127.0.0.1","2011-10-30 18:38:48",,
"14","vacationrentals_page","10","Absolutely the Best Kailua-Kona 1BR in Alii Villas Complex","1","127.0.0.1","2011-10-30 18:38:50",,
"15","vacationrentals_page","11","Grand Juniper Chalet","1","127.0.0.1","2011-10-30 18:38:58",,
"16","vacationrentals_page","12","Luxurious Riverside Apartment","-1","127.0.0.1","2011-10-30 18:38:59",,
"17","vacationrentals_page","14","Arrabelle 655","1","127.0.0.1","2011-10-30 18:39:00",,
"18","vacationrentals_page","13","Sundial P201-Beautiful view","1","127.0.0.1","2011-10-30 18:39:03",,
"19","vacationrentals_page","15","Kadenwood #2972","1","127.0.0.1","2011-10-30 18:39:06",,
"20","vacationrentals_page","16","Test Nazrul","1","127.0.0.1","2011-10-30 18:39:16",,
"21","vacationrentals_page","17","Apartment Sol, Beautifully Sun Filled, Manhattan","-1","127.0.0.1","2011-10-30 18:39:17",,
"22","vacationrentals_page","18","Incredible Mont Tremblant Area Luxury Log Home With On-Site Spa, Gym & Restaurant!","1","127.0.0.1","2011-10-30 18:39:18",,
"23","vacationrentals_page","19","A Slice of Heaven in Nova Scotia","-1","127.0.0.1","2011-10-30 18:39:19",,
"24","vacationrentals_page","20","Vadakkathu Houseboats","1","127.0.0.1","2011-10-30 18:39:20",,
"25","vacationrentals_page","21","Benyasiri, Villa 15 - Samsara","1","127.0.0.1","2011-10-30 18:39:30",,
"26","vacationrentals_page","22","Bitterbrush 4","-1","127.0.0.1","2011-10-30 18:39:30",,
"27","vacationrentals_page","23","Hackensack Resort with Lake Front Cabins","1","127.0.0.1","2011-10-30 18:39:32",,
"28","vacationrentals_page","24","Ohana Beach House","1","127.0.0.1","2011-10-30 18:39:34",,
"29","hotels_page","5","Amigos Hotel","-1","127.0.0.1","2011-11-09 23:14:03",,
"30","hotels_page","7","K West Hotel London","1","127.0.0.1","2011-11-09 23:14:04",,
"31","hotels_page","8","Harbour Plaza North Point Hotel Hong Kong","-1","127.0.0.1","2011-11-09 23:14:07",,
"32","hotels_page","9","Ascott Raffles Place Singapore","1","127.0.0.1","2011-11-09 23:14:08",,
"33","hotels_page","10","Ameritania Hotel","-1","127.0.0.1","2011-11-09 23:14:09",,
"34","hotels_page","11","Nikko Bali Resort & Spa","1","127.0.0.1","2011-11-09 23:14:11",,
"35","hotels_page","12","K+K Hotel am Harras","0","127.0.0.1","2011-11-09 23:14:25",,
"36","hotels_page","13","Lancaster London formerly Royal Lancaster","1","127.0.0.1","2011-11-09 23:14:26",,
"37","hotels_page","14","Hilton Financial District San Francisco","-1","127.0.0.1","2011-11-09 23:14:28",,
"38","hotels_page","15","Park Regis City Centre Sydney","1","127.0.0.1","2011-11-09 23:14:29",,
"39","hotels_page","16","Crowne Plaza Newcastle Hotel","-1","127.0.0.1","2011-11-09 23:14:31",,
"40","hotels_page","17","Castiglione Hotel Paris","1","127.0.0.1","2011-11-09 23:14:33",,
"41","hotels_page","18","Novotel Peace Hotel Beijing","-1","127.0.0.1","2011-11-09 23:14:35",,
"42","hotels_page","19","Grand City Hotel Berlin Hamburg Zentrum","1","127.0.0.1","2011-11-09 23:14:36",,
"43","hotels_page","20","UNA Hotel Rome","-1","127.0.0.1","2011-11-09 23:14:38",,
"44","hotels_page","21","Balmes Hotel Barcelona","1","127.0.0.1","2011-11-09 23:14:39",,
"45","tours_page","1","Stonehenge, Windsor Castle and Bath Day Trip from London","1","127.0.0.1","2011-12-07 17:46:14",,
"46","tours_page","3","River Kwai with Death Railway in Kanchanaburi - Bangkok Thailand","-1","127.0.0.1","2011-12-07 17:46:16",,
"47","tours_page","6","Niagara Falls Power Pass (Access to Many Attractions for 1 LOW Price!!)","1","127.0.0.1","2011-12-07 17:46:18",,
"48","tours_page","5","Vatican Museums Walking Tour including Sistine Chapel, Raphael\'s Rooms and St Peter\'s","0","127.0.0.1","2011-12-07 17:46:19",,
"49","tours_page","7","Spectacular South Island with Sydney & Fiji","1","127.0.0.1","2011-12-07 17:46:21",,
"50","tours_page","8","4 Days Canada, Montreal, Ottawa, Toronto, Niagara Falls Bus Tour (Budget Tour)","-1","127.0.0.1","2011-12-07 17:46:22",,
"51","tours_page","9","Christmastime In Bavaria & Austria","1","127.0.0.1","2011-12-07 17:46:24",,
"52","tours_page","10","Tuscany in One Day Sightseeing Tour","-1","127.0.0.1","2011-12-07 17:46:25",,
"53","tours_page","11","Paris City Tour, Seine River Cruise and Eiffel Tower","1","127.0.0.1","2011-12-07 17:46:26",,
"54","tours_page","13","Scenic Norway","-1","127.0.0.1","2011-12-07 17:46:32",,
"55","tours_page","15","5-Day Best of Italy Trip","1","127.0.0.1","2011-12-07 17:46:34",,
"56","tours_page","18","The Heart of China & The Yangtze River with Bangkok","1","127.0.0.1","2011-12-07 17:46:36",,
"57","tours_page","20","Kuala Lumpur & Penang Wonder","1","127.0.0.1","2011-12-07 17:46:37",,
"58","tours_page","21","Enticing Bali","-1","127.0.0.1","2011-12-07 17:46:39",,
"59","tours_page","22","Independent 3-Day Trip to Liverpool including the Beatles Story Experience","1","127.0.0.1","2011-12-07 17:46:40",,
"60","tours_page","23","3-Day Bus Tour to Washington D.C. , Philadelphia, Niagara Falls from New York (Super Value Tour)","1","127.0.0.1","2011-12-07 17:46:41",,
"61","tours_page","2","Darjeeling Tour Packages","1","127.0.0.1","2011-12-07 17:46:50",,
"62","tours_page","4","Essence of Kashmir and Ladakh Tour","-1","127.0.0.1","2011-12-07 17:46:52",,
"63","tours_page","12","The Original London Sightseeing's Tour: Hop-on Hop-off","-1","127.0.0.1","2011-12-07 17:46:53",,
"64","tours_page","14","Scenic Japan 5 Nights / 6 Days","1","127.0.0.1","2011-12-07 17:46:54",,
"65","tours_page","16","Erawan Waterfall and River Kwai Bridge Tour - Kanchanaburi Thailand","-1","127.0.0.1","2011-12-07 17:46:56",,
"66","tours_page","17","5-Day Nepal Extension Tour - Winter","1","127.0.0.1","2011-12-07 17:46:57",,
"67","tours_page","19","A Memorable Honeymoon Trip to India","-1","127.0.0.1","2011-12-07 17:46:58",,
"68","tours_page","24","5 Day East Coast: US from Washington D.C. (Standard Quality)","1","127.0.0.1","2011-12-07 17:47:00",,
"69","flight_flights","1","Tour Flight","1","127.0.0.1","2011-12-12 22:25:24",,
"70","flight_flights","3","tures1","-1","127.0.0.1","2011-12-12 23:22:47",,
"71","flight_flights","4","rewr","1","127.0.0.1","2011-12-12 23:22:50",,
"72","flight_flights","11","Test","1","127.0.0.1","2011-12-12 23:22:52",,
"73","flight_flights","2","Usa Toure","1","127.0.0.1","2011-12-13 18:44:16",,
"74","flight_flights","12","London-New York","1","127.0.0.1","2011-12-14 22:53:00",,
"75","flight_flights","14","Usa Toure1","1","127.0.0.1","2011-12-14 22:53:06",,
"76","flight_flights","13","Saudi London - New York","1","127.0.0.1","2011-12-14 22:53:12",,
"77","flight_flights","15","Tour Flight1","1","127.0.0.1","2011-12-14 22:54:04",,
"78","flight_flights","16","Dhaka to America","-1","127.0.0.1","2011-12-14 22:54:09",,
"79","flight_flights","22","Nepal to Canada","1","127.0.0.1","2011-12-14 22:54:14",,
"80","flight_flights","26","Alberta  to Albury","1","127.0.0.1","2011-12-14 22:54:21",,
"81","flight_flights","28","Eungella National Park to Bedfordshire","-1","127.0.0.1","2011-12-14 22:54:26",,
"82","property_page","8","A Stunning 2 bed Flat to Let","1","127.0.0.1","2011-12-31 20:12:21",,
"83","property_page","5","A NICE 3 BEDROOMS HOUSE TO RENT","1","127.0.0.1","2012-01-10 21:38:43",,
"84","property_page","1","A EXELENT 3 BEDROOMS HOUSE TO RENT","1","127.0.0.1","2012-01-14 21:46:14",,
"85","autos_page","19","2010 Toyota Corolla LE","1","127.0.0.1","2012-02-12 16:18:55",,
"86","autos_page","3","2010 Toyota Matrix","-1","127.0.0.1","2012-02-12 16:18:59",,
"87","autos_page","1","2010 Toyota Corolla LE","1","127.0.0.1","2012-02-12 16:19:01",,
"88","autos_page","4","2010 Honda Civic LX","1","127.0.0.1","2012-02-13 21:19:17",,
"89","autos_page","15","2009 Kia Rio LX","-1","127.0.0.1","2012-02-13 21:19:18",,
"90","autos_page","11","2010 Nissan Rogue S","1","127.0.0.1","2012-02-15 17:33:15",,
"91","autos_page","8","Used 2008 Mitsubishi Eclipse SE","0","127.0.0.1","2012-02-15 17:46:47",,
"92","autos_page","7","Used 2009 Honda Civic Sedan Si","1","127.0.0.1","2012-02-15 17:46:49",,
"93","autos_page","10","Used 1997 Toyota Supra W-Sport RF Ltd ED","-1","127.0.0.1","2012-02-15 17:46:51",,
"94","autos_page","24","Used 2010 Volvo S80 I6","-1","127.0.0.1","2012-02-15 17:46:53",,
"95","autos_page","6","Used 2008 BMW 128i Convertible","1","127.0.0.1","2012-02-15 17:52:21",,
"96","property_page","53","5714 Merrywing Circle, Austin TX 78730","1","127.0.0.1","2012-03-20 17:03:22",,
"97","b2b_products","8","Seamless Stainless Square Pipes","1","127.0.0.1","2013-07-22 17:11:03",,
"98","b2b_selling_leads","20","Police investigation","1","127.0.0.1","2013-07-24 15:48:40",,
"99","autos_spare_parts","1","Spare Parts 1","1","127.0.0.1","2013-11-16 12:32:23",,
"100","autos_spare_parts","8","Garage Pro C13462-1G Fold & Tumble Seat - Direct fit","1","127.0.0.1","2013-11-20 15:49:27",,
"101","autos_spare_parts","7","Cordura Seat Cover - Black, Ballistic, Solid, Direct fit","0","127.0.0.1","2013-11-20 15:52:08",,
"102","tours_page","28","zx","-1","127.0.0.1","2013-12-29 13:03:06",,
"103","property_page","9","Hotel","1","127.0.0.1","2014-03-09 15:49:38",,
"104","flight_flights","64","test3","1","127.0.0.1","2014-05-31 16:47:17",,
